%YAML 1.1
%TAG !u! tag:unity3d.com,2011:
--- !u!29 &1
OcclusionCullingSettings:
  m_ObjectHideFlags: 0
  serializedVersion: 2
  m_OcclusionBakeSettings:
    smallestOccluder: 5
    smallestHole: 0.25
    backfaceThreshold: 100
  m_SceneGUID: 00000000000000000000000000000000
  m_OcclusionCullingData: {fileID: 0}
--- !u!104 &2
RenderSettings:
  m_ObjectHideFlags: 0
  serializedVersion: 9
  m_Fog: 0
  m_FogColor: {r: 0.5, g: 0.5, b: 0.5, a: 1}
  m_FogMode: 3
  m_FogDensity: 0.01
  m_LinearFogStart: 0
  m_LinearFogEnd: 300
  m_AmbientSkyColor: {r: 0.212, g: 0.227, b: 0.259, a: 1}
  m_AmbientEquatorColor: {r: 0.114, g: 0.125, b: 0.133, a: 1}
  m_AmbientGroundColor: {r: 0.047, g: 0.043, b: 0.035, a: 1}
  m_AmbientIntensity: 1
  m_AmbientMode: 0
  m_SubtractiveShadowColor: {r: 0.42, g: 0.478, b: 0.627, a: 1}
  m_SkyboxMaterial: {fileID: 10304, guid: 0000000000000000f000000000000000, type: 0}
  m_HaloStrength: 0.5
  m_FlareStrength: 1
  m_FlareFadeSpeed: 3
  m_HaloTexture: {fileID: 0}
  m_SpotCookie: {fileID: 10001, guid: 0000000000000000e000000000000000, type: 0}
  m_DefaultReflectionMode: 0
  m_DefaultReflectionResolution: 128
  m_ReflectionBounces: 1
  m_ReflectionIntensity: 1
  m_CustomReflection: {fileID: 0}
  m_Sun: {fileID: 0}
  m_IndirectSpecularColor: {r: 0.44657898, g: 0.4964133, b: 0.5748178, a: 1}
  m_UseRadianceAmbientProbe: 0
--- !u!157 &3
LightmapSettings:
  m_ObjectHideFlags: 0
  serializedVersion: 12
  m_GIWorkflowMode: 1
  m_GISettings:
    serializedVersion: 2
    m_BounceScale: 1
    m_IndirectOutputScale: 1
    m_AlbedoBoost: 1
    m_EnvironmentLightingMode: 0
    m_EnableBakedLightmaps: 1
    m_EnableRealtimeLightmaps: 0
  m_LightmapEditorSettings:
    serializedVersion: 12
    m_Resolution: 2
    m_BakeResolution: 40
    m_AtlasSize: 1024
    m_AO: 0
    m_AOMaxDistance: 1
    m_CompAOExponent: 1
    m_CompAOExponentDirect: 0
    m_ExtractAmbientOcclusion: 0
    m_Padding: 2
    m_LightmapParameters: {fileID: 0}
    m_LightmapsBakeMode: 1
    m_TextureCompression: 1
    m_FinalGather: 0
    m_FinalGatherFiltering: 1
    m_FinalGatherRayCount: 256
    m_ReflectionCompression: 2
    m_MixedBakeMode: 2
    m_BakeBackend: 1
    m_PVRSampling: 1
    m_PVRDirectSampleCount: 32
    m_PVRSampleCount: 512
    m_PVRBounces: 2
    m_PVREnvironmentSampleCount: 256
    m_PVREnvironmentReferencePointCount: 2048
    m_PVRFilteringMode: 1
    m_PVRDenoiserTypeDirect: 1
    m_PVRDenoiserTypeIndirect: 1
    m_PVRDenoiserTypeAO: 1
    m_PVRFilterTypeDirect: 0
    m_PVRFilterTypeIndirect: 0
    m_PVRFilterTypeAO: 0
    m_PVREnvironmentMIS: 1
    m_PVRCulling: 1
    m_PVRFilteringGaussRadiusDirect: 1
    m_PVRFilteringGaussRadiusIndirect: 5
    m_PVRFilteringGaussRadiusAO: 2
    m_PVRFilteringAtrousPositionSigmaDirect: 0.5
    m_PVRFilteringAtrousPositionSigmaIndirect: 2
    m_PVRFilteringAtrousPositionSigmaAO: 1
    m_ExportTrainingData: 0
    m_TrainingDataDestination: TrainingData
    m_LightProbeSampleCountMultiplier: 4
  m_LightingDataAsset: {fileID: 0}
  m_LightingSettings: {fileID: 0}
--- !u!196 &4
NavMeshSettings:
  serializedVersion: 2
  m_ObjectHideFlags: 0
  m_BuildSettings:
    serializedVersion: 2
    agentTypeID: 0
    agentRadius: 0.5
    agentHeight: 2
    agentSlope: 45
    agentClimb: 0.4
    ledgeDropHeight: 0
    maxJumpAcrossDistance: 0
    minRegionArea: 2
    manualCellSize: 0
    cellSize: 0.16666667
    manualTileSize: 0
    tileSize: 256
    accuratePlacement: 0
    maxJobWorkers: 0
    preserveTilesOutsideBounds: 0
    debug:
      m_Flags: 0
  m_NavMeshData: {fileID: 0}
--- !u!1 &61643147
GameObject:
  m_ObjectHideFlags: 0
  m_CorrespondingSourceObject: {fileID: 0}
  m_PrefabInstance: {fileID: 0}
  m_PrefabAsset: {fileID: 0}
  serializedVersion: 6
  m_Component:
  - component: {fileID: 61643151}
  - component: {fileID: 61643150}
  - component: {fileID: 61643149}
  - component: {fileID: 61643148}
  m_Layer: 0
  m_Name: Cube
  m_TagString: Untagged
  m_Icon: {fileID: 0}
  m_NavMeshLayer: 0
  m_StaticEditorFlags: 0
  m_IsActive: 1
--- !u!65 &61643148
BoxCollider:
  m_ObjectHideFlags: 0
  m_CorrespondingSourceObject: {fileID: 0}
  m_PrefabInstance: {fileID: 0}
  m_PrefabAsset: {fileID: 0}
  m_GameObject: {fileID: 61643147}
  m_Material: {fileID: 0}
  m_IsTrigger: 0
  m_Enabled: 1
  serializedVersion: 2
  m_Size: {x: 1, y: 1, z: 1}
  m_Center: {x: 0, y: 0, z: 0}
--- !u!23 &61643149
MeshRenderer:
  m_ObjectHideFlags: 0
  m_CorrespondingSourceObject: {fileID: 0}
  m_PrefabInstance: {fileID: 0}
  m_PrefabAsset: {fileID: 0}
  m_GameObject: {fileID: 61643147}
  m_Enabled: 1
  m_CastShadows: 1
  m_ReceiveShadows: 1
  m_DynamicOccludee: 1
  m_StaticShadowCaster: 0
  m_MotionVectors: 1
  m_LightProbeUsage: 1
  m_ReflectionProbeUsage: 1
  m_RayTracingMode: 2
  m_RayTraceProcedural: 0
  m_RenderingLayerMask: 1
  m_RendererPriority: 0
  m_Materials:
  - {fileID: 2100000, guid: 9d3aac3175d3d204b8ce65dfa4d909c0, type: 2}
  m_StaticBatchInfo:
    firstSubMesh: 0
    subMeshCount: 0
  m_StaticBatchRoot: {fileID: 0}
  m_ProbeAnchor: {fileID: 0}
  m_LightProbeVolumeOverride: {fileID: 0}
  m_ScaleInLightmap: 1
  m_ReceiveGI: 1
  m_PreserveUVs: 0
  m_IgnoreNormalsForChartDetection: 0
  m_ImportantGI: 0
  m_StitchLightmapSeams: 1
  m_SelectedEditorRenderState: 3
  m_MinimumChartSize: 4
  m_AutoUVMaxDistance: 0.5
  m_AutoUVMaxAngle: 89
  m_LightmapParameters: {fileID: 0}
  m_SortingLayerID: 0
  m_SortingLayer: 0
  m_SortingOrder: 0
  m_AdditionalVertexStreams: {fileID: 0}
--- !u!33 &61643150
MeshFilter:
  m_ObjectHideFlags: 0
  m_CorrespondingSourceObject: {fileID: 0}
  m_PrefabInstance: {fileID: 0}
  m_PrefabAsset: {fileID: 0}
  m_GameObject: {fileID: 61643147}
  m_Mesh: {fileID: 10202, guid: 0000000000000000e000000000000000, type: 0}
--- !u!4 &61643151
Transform:
  m_ObjectHideFlags: 0
  m_CorrespondingSourceObject: {fileID: 0}
  m_PrefabInstance: {fileID: 0}
  m_PrefabAsset: {fileID: 0}
  m_GameObject: {fileID: 61643147}
  m_LocalRotation: {x: 0, y: 0, z: 0, w: 1}
  m_LocalPosition: {x: 0, y: 0, z: 0}
  m_LocalScale: {x: 39.497303, y: 1, z: 34.102776}
  m_ConstrainProportionsScale: 0
  m_Children: []
  m_Father: {fileID: 0}
  m_RootOrder: 2
  m_LocalEulerAnglesHint: {x: 0, y: 0, z: 0}
--- !u!1001 &85872561
PrefabInstance:
  m_ObjectHideFlags: 0
  serializedVersion: 2
  m_Modification:
    m_TransformParent: {fileID: 0}
    m_Modifications:
    - target: {fileID: 242827740321673059, guid: 5e0bd4772ef82ae46b54489c9fcc61a0, type: 3}
      propertyPath: m_RootOrder
      value: 9
      objectReference: {fileID: 0}
    - target: {fileID: 242827740321673059, guid: 5e0bd4772ef82ae46b54489c9fcc61a0, type: 3}
      propertyPath: m_LocalPosition.x
      value: 16.64545
      objectReference: {fileID: 0}
    - target: {fileID: 242827740321673059, guid: 5e0bd4772ef82ae46b54489c9fcc61a0, type: 3}
      propertyPath: m_LocalPosition.y
      value: 5.25
      objectReference: {fileID: 0}
    - target: {fileID: 242827740321673059, guid: 5e0bd4772ef82ae46b54489c9fcc61a0, type: 3}
      propertyPath: m_LocalPosition.z
      value: 15.73
      objectReference: {fileID: 0}
    - target: {fileID: 242827740321673059, guid: 5e0bd4772ef82ae46b54489c9fcc61a0, type: 3}
      propertyPath: m_LocalRotation.w
      value: 1
      objectReference: {fileID: 0}
    - target: {fileID: 242827740321673059, guid: 5e0bd4772ef82ae46b54489c9fcc61a0, type: 3}
      propertyPath: m_LocalRotation.x
      value: 0
      objectReference: {fileID: 0}
    - target: {fileID: 242827740321673059, guid: 5e0bd4772ef82ae46b54489c9fcc61a0, type: 3}
      propertyPath: m_LocalRotation.y
      value: 0
      objectReference: {fileID: 0}
    - target: {fileID: 242827740321673059, guid: 5e0bd4772ef82ae46b54489c9fcc61a0, type: 3}
      propertyPath: m_LocalRotation.z
      value: 0
      objectReference: {fileID: 0}
    - target: {fileID: 242827740321673059, guid: 5e0bd4772ef82ae46b54489c9fcc61a0, type: 3}
      propertyPath: m_LocalEulerAnglesHint.x
      value: 0
      objectReference: {fileID: 0}
    - target: {fileID: 242827740321673059, guid: 5e0bd4772ef82ae46b54489c9fcc61a0, type: 3}
      propertyPath: m_LocalEulerAnglesHint.y
      value: 0
      objectReference: {fileID: 0}
    - target: {fileID: 242827740321673059, guid: 5e0bd4772ef82ae46b54489c9fcc61a0, type: 3}
      propertyPath: m_LocalEulerAnglesHint.z
      value: 0
      objectReference: {fileID: 0}
    - target: {fileID: 5492312344283193013, guid: 5e0bd4772ef82ae46b54489c9fcc61a0, type: 3}
      propertyPath: m_Name
      value: cube (5)
      objectReference: {fileID: 0}
    m_RemovedComponents: []
  m_SourcePrefab: {fileID: 100100000, guid: 5e0bd4772ef82ae46b54489c9fcc61a0, type: 3}
--- !u!1001 &145008878
PrefabInstance:
  m_ObjectHideFlags: 0
  serializedVersion: 2
  m_Modification:
    m_TransformParent: {fileID: 0}
    m_Modifications:
    - target: {fileID: 242827740321673059, guid: 5e0bd4772ef82ae46b54489c9fcc61a0, type: 3}
      propertyPath: m_RootOrder
      value: 15
      objectReference: {fileID: 0}
    - target: {fileID: 242827740321673059, guid: 5e0bd4772ef82ae46b54489c9fcc61a0, type: 3}
      propertyPath: m_LocalPosition.x
      value: -4.645453
      objectReference: {fileID: 0}
    - target: {fileID: 242827740321673059, guid: 5e0bd4772ef82ae46b54489c9fcc61a0, type: 3}
      propertyPath: m_LocalPosition.y
      value: 5.25
      objectReference: {fileID: 0}
    - target: {fileID: 242827740321673059, guid: 5e0bd4772ef82ae46b54489c9fcc61a0, type: 3}
      propertyPath: m_LocalPosition.z
      value: 15.73
      objectReference: {fileID: 0}
    - target: {fileID: 242827740321673059, guid: 5e0bd4772ef82ae46b54489c9fcc61a0, type: 3}
      propertyPath: m_LocalRotation.w
      value: 1
      objectReference: {fileID: 0}
    - target: {fileID: 242827740321673059, guid: 5e0bd4772ef82ae46b54489c9fcc61a0, type: 3}
      propertyPath: m_LocalRotation.x
      value: 0
      objectReference: {fileID: 0}
    - target: {fileID: 242827740321673059, guid: 5e0bd4772ef82ae46b54489c9fcc61a0, type: 3}
      propertyPath: m_LocalRotation.y
      value: 0
      objectReference: {fileID: 0}
    - target: {fileID: 242827740321673059, guid: 5e0bd4772ef82ae46b54489c9fcc61a0, type: 3}
      propertyPath: m_LocalRotation.z
      value: 0
      objectReference: {fileID: 0}
    - target: {fileID: 242827740321673059, guid: 5e0bd4772ef82ae46b54489c9fcc61a0, type: 3}
      propertyPath: m_LocalEulerAnglesHint.x
      value: 0
      objectReference: {fileID: 0}
    - target: {fileID: 242827740321673059, guid: 5e0bd4772ef82ae46b54489c9fcc61a0, type: 3}
      propertyPath: m_LocalEulerAnglesHint.y
      value: 0
      objectReference: {fileID: 0}
    - target: {fileID: 242827740321673059, guid: 5e0bd4772ef82ae46b54489c9fcc61a0, type: 3}
      propertyPath: m_LocalEulerAnglesHint.z
      value: 0
      objectReference: {fileID: 0}
    - target: {fileID: 5492312344283193013, guid: 5e0bd4772ef82ae46b54489c9fcc61a0, type: 3}
      propertyPath: m_Name
      value: cube (11)
      objectReference: {fileID: 0}
    m_RemovedComponents: []
  m_SourcePrefab: {fileID: 100100000, guid: 5e0bd4772ef82ae46b54489c9fcc61a0, type: 3}
--- !u!1001 &182070919
PrefabInstance:
  m_ObjectHideFlags: 0
  serializedVersion: 2
  m_Modification:
    m_TransformParent: {fileID: 0}
    m_Modifications:
    - target: {fileID: 242827740321673059, guid: 5e0bd4772ef82ae46b54489c9fcc61a0, type: 3}
      propertyPath: m_RootOrder
      value: 12
      objectReference: {fileID: 0}
    - target: {fileID: 242827740321673059, guid: 5e0bd4772ef82ae46b54489c9fcc61a0, type: 3}
      propertyPath: m_LocalPosition.x
      value: 2.645453
      objectReference: {fileID: 0}
    - target: {fileID: 242827740321673059, guid: 5e0bd4772ef82ae46b54489c9fcc61a0, type: 3}
      propertyPath: m_LocalPosition.y
      value: 5.25
      objectReference: {fileID: 0}
    - target: {fileID: 242827740321673059, guid: 5e0bd4772ef82ae46b54489c9fcc61a0, type: 3}
      propertyPath: m_LocalPosition.z
      value: 15.73
      objectReference: {fileID: 0}
    - target: {fileID: 242827740321673059, guid: 5e0bd4772ef82ae46b54489c9fcc61a0, type: 3}
      propertyPath: m_LocalRotation.w
      value: 1
      objectReference: {fileID: 0}
    - target: {fileID: 242827740321673059, guid: 5e0bd4772ef82ae46b54489c9fcc61a0, type: 3}
      propertyPath: m_LocalRotation.x
      value: 0
      objectReference: {fileID: 0}
    - target: {fileID: 242827740321673059, guid: 5e0bd4772ef82ae46b54489c9fcc61a0, type: 3}
      propertyPath: m_LocalRotation.y
      value: 0
      objectReference: {fileID: 0}
    - target: {fileID: 242827740321673059, guid: 5e0bd4772ef82ae46b54489c9fcc61a0, type: 3}
      propertyPath: m_LocalRotation.z
      value: 0
      objectReference: {fileID: 0}
    - target: {fileID: 242827740321673059, guid: 5e0bd4772ef82ae46b54489c9fcc61a0, type: 3}
      propertyPath: m_LocalEulerAnglesHint.x
      value: 0
      objectReference: {fileID: 0}
    - target: {fileID: 242827740321673059, guid: 5e0bd4772ef82ae46b54489c9fcc61a0, type: 3}
      propertyPath: m_LocalEulerAnglesHint.y
      value: 0
      objectReference: {fileID: 0}
    - target: {fileID: 242827740321673059, guid: 5e0bd4772ef82ae46b54489c9fcc61a0, type: 3}
      propertyPath: m_LocalEulerAnglesHint.z
      value: 0
      objectReference: {fileID: 0}
    - target: {fileID: 5492312344283193013, guid: 5e0bd4772ef82ae46b54489c9fcc61a0, type: 3}
      propertyPath: m_Name
      value: cube (8)
      objectReference: {fileID: 0}
    m_RemovedComponents: []
  m_SourcePrefab: {fileID: 100100000, guid: 5e0bd4772ef82ae46b54489c9fcc61a0, type: 3}
--- !u!1 &490928244
GameObject:
  m_ObjectHideFlags: 0
  m_CorrespondingSourceObject: {fileID: 0}
  m_PrefabInstance: {fileID: 0}
  m_PrefabAsset: {fileID: 0}
  serializedVersion: 6
  m_Component:
  - component: {fileID: 490928247}
  - component: {fileID: 490928246}
  - component: {fileID: 490928245}
  m_Layer: 0
  m_Name: Main Camera
  m_TagString: MainCamera
  m_Icon: {fileID: 0}
  m_NavMeshLayer: 0
  m_StaticEditorFlags: 0
  m_IsActive: 1
--- !u!81 &490928245
AudioListener:
  m_ObjectHideFlags: 0
  m_CorrespondingSourceObject: {fileID: 0}
  m_PrefabInstance: {fileID: 0}
  m_PrefabAsset: {fileID: 0}
  m_GameObject: {fileID: 490928244}
  m_Enabled: 1
--- !u!20 &490928246
Camera:
  m_ObjectHideFlags: 0
  m_CorrespondingSourceObject: {fileID: 0}
  m_PrefabInstance: {fileID: 0}
  m_PrefabAsset: {fileID: 0}
  m_GameObject: {fileID: 490928244}
  m_Enabled: 1
  serializedVersion: 2
  m_ClearFlags: 1
  m_BackGroundColor: {r: 0.19215687, g: 0.3019608, b: 0.4745098, a: 0}
  m_projectionMatrixMode: 1
  m_GateFitMode: 2
  m_FOVAxisMode: 0
  m_SensorSize: {x: 36, y: 24}
  m_LensShift: {x: 0, y: 0}
  m_FocalLength: 50
  m_NormalizedViewPortRect:
    serializedVersion: 2
    x: 0
    y: 0
    width: 1
    height: 1
  near clip plane: 0.3
  far clip plane: 1000
  field of view: 60
  orthographic: 0
  orthographic size: 5
  m_Depth: -1
  m_CullingMask:
    serializedVersion: 2
    m_Bits: 4294967295
  m_RenderingPath: -1
  m_TargetTexture: {fileID: 0}
  m_TargetDisplay: 0
  m_TargetEye: 3
  m_HDR: 1
  m_AllowMSAA: 1
  m_AllowDynamicResolution: 0
  m_ForceIntoRT: 0
  m_OcclusionCulling: 1
  m_StereoConvergence: 10
  m_StereoSeparation: 0.022
--- !u!4 &490928247
Transform:
  m_ObjectHideFlags: 0
  m_CorrespondingSourceObject: {fileID: 0}
  m_PrefabInstance: {fileID: 0}
  m_PrefabAsset: {fileID: 0}
  m_GameObject: {fileID: 490928244}
  m_LocalRotation: {x: 0, y: 0, z: 0, w: 1}
  m_LocalPosition: {x: 0, y: 1, z: -10}
  m_LocalScale: {x: 1, y: 1, z: 1}
  m_ConstrainProportionsScale: 0
  m_Children: []
  m_Father: {fileID: 0}
  m_RootOrder: 0
  m_LocalEulerAnglesHint: {x: 0, y: 0, z: 0}
--- !u!1001 &598860636
PrefabInstance:
  m_ObjectHideFlags: 0
  serializedVersion: 2
  m_Modification:
    m_TransformParent: {fileID: 0}
    m_Modifications:
    - target: {fileID: 242827740321673059, guid: 5e0bd4772ef82ae46b54489c9fcc61a0, type: 3}
      propertyPath: m_RootOrder
      value: 5
      objectReference: {fileID: 0}
    - target: {fileID: 242827740321673059, guid: 5e0bd4772ef82ae46b54489c9fcc61a0, type: 3}
      propertyPath: m_LocalPosition.x
      value: 8.645453
      objectReference: {fileID: 0}
    - target: {fileID: 242827740321673059, guid: 5e0bd4772ef82ae46b54489c9fcc61a0, type: 3}
      propertyPath: m_LocalPosition.y
      value: 5.25
      objectReference: {fileID: 0}
    - target: {fileID: 242827740321673059, guid: 5e0bd4772ef82ae46b54489c9fcc61a0, type: 3}
      propertyPath: m_LocalPosition.z
      value: 15.73
      objectReference: {fileID: 0}
    - target: {fileID: 242827740321673059, guid: 5e0bd4772ef82ae46b54489c9fcc61a0, type: 3}
      propertyPath: m_LocalRotation.w
      value: 1
      objectReference: {fileID: 0}
    - target: {fileID: 242827740321673059, guid: 5e0bd4772ef82ae46b54489c9fcc61a0, type: 3}
      propertyPath: m_LocalRotation.x
      value: 0
      objectReference: {fileID: 0}
    - target: {fileID: 242827740321673059, guid: 5e0bd4772ef82ae46b54489c9fcc61a0, type: 3}
      propertyPath: m_LocalRotation.y
      value: 0
      objectReference: {fileID: 0}
    - target: {fileID: 242827740321673059, guid: 5e0bd4772ef82ae46b54489c9fcc61a0, type: 3}
      propertyPath: m_LocalRotation.z
      value: 0
      objectReference: {fileID: 0}
    - target: {fileID: 242827740321673059, guid: 5e0bd4772ef82ae46b54489c9fcc61a0, type: 3}
      propertyPath: m_LocalEulerAnglesHint.x
      value: 0
      objectReference: {fileID: 0}
    - target: {fileID: 242827740321673059, guid: 5e0bd4772ef82ae46b54489c9fcc61a0, type: 3}
      propertyPath: m_LocalEulerAnglesHint.y
      value: 0
      objectReference: {fileID: 0}
    - target: {fileID: 242827740321673059, guid: 5e0bd4772ef82ae46b54489c9fcc61a0, type: 3}
      propertyPath: m_LocalEulerAnglesHint.z
      value: 0
      objectReference: {fileID: 0}
    - target: {fileID: 5492312344283193013, guid: 5e0bd4772ef82ae46b54489c9fcc61a0, type: 3}
      propertyPath: m_Name
      value: cube (1)
      objectReference: {fileID: 0}
    m_RemovedComponents: []
  m_SourcePrefab: {fileID: 100100000, guid: 5e0bd4772ef82ae46b54489c9fcc61a0, type: 3}
--- !u!1001 &623219274
PrefabInstance:
  m_ObjectHideFlags: 0
  serializedVersion: 2
  m_Modification:
    m_TransformParent: {fileID: 0}
    m_Modifications:
    - target: {fileID: 242827740321673059, guid: 5e0bd4772ef82ae46b54489c9fcc61a0, type: 3}
      propertyPath: m_RootOrder
      value: 20
      objectReference: {fileID: 0}
    - target: {fileID: 242827740321673059, guid: 5e0bd4772ef82ae46b54489c9fcc61a0, type: 3}
      propertyPath: m_LocalPosition.x
      value: -14.645453
      objectReference: {fileID: 0}
    - target: {fileID: 242827740321673059, guid: 5e0bd4772ef82ae46b54489c9fcc61a0, type: 3}
      propertyPath: m_LocalPosition.y
      value: 5.25
      objectReference: {fileID: 0}
    - target: {fileID: 242827740321673059, guid: 5e0bd4772ef82ae46b54489c9fcc61a0, type: 3}
      propertyPath: m_LocalPosition.z
      value: 15.73
      objectReference: {fileID: 0}
    - target: {fileID: 242827740321673059, guid: 5e0bd4772ef82ae46b54489c9fcc61a0, type: 3}
      propertyPath: m_LocalRotation.w
      value: 1
      objectReference: {fileID: 0}
    - target: {fileID: 242827740321673059, guid: 5e0bd4772ef82ae46b54489c9fcc61a0, type: 3}
      propertyPath: m_LocalRotation.x
      value: 0
      objectReference: {fileID: 0}
    - target: {fileID: 242827740321673059, guid: 5e0bd4772ef82ae46b54489c9fcc61a0, type: 3}
      propertyPath: m_LocalRotation.y
      value: 0
      objectReference: {fileID: 0}
    - target: {fileID: 242827740321673059, guid: 5e0bd4772ef82ae46b54489c9fcc61a0, type: 3}
      propertyPath: m_LocalRotation.z
      value: 0
      objectReference: {fileID: 0}
    - target: {fileID: 242827740321673059, guid: 5e0bd4772ef82ae46b54489c9fcc61a0, type: 3}
      propertyPath: m_LocalEulerAnglesHint.x
      value: 0
      objectReference: {fileID: 0}
    - target: {fileID: 242827740321673059, guid: 5e0bd4772ef82ae46b54489c9fcc61a0, type: 3}
      propertyPath: m_LocalEulerAnglesHint.y
      value: 0
      objectReference: {fileID: 0}
    - target: {fileID: 242827740321673059, guid: 5e0bd4772ef82ae46b54489c9fcc61a0, type: 3}
      propertyPath: m_LocalEulerAnglesHint.z
      value: 0
      objectReference: {fileID: 0}
    - target: {fileID: 5492312344283193013, guid: 5e0bd4772ef82ae46b54489c9fcc61a0, type: 3}
      propertyPath: m_Name
      value: cube (16)
      objectReference: {fileID: 0}
    m_RemovedComponents: []
  m_SourcePrefab: {fileID: 100100000, guid: 5e0bd4772ef82ae46b54489c9fcc61a0, type: 3}
--- !u!1001 &655627498
PrefabInstance:
  m_ObjectHideFlags: 0
  serializedVersion: 2
  m_Modification:
    m_TransformParent: {fileID: 0}
    m_Modifications:
    - target: {fileID: 242827740321673059, guid: 5e0bd4772ef82ae46b54489c9fcc61a0, type: 3}
      propertyPath: m_RootOrder
      value: 11
      objectReference: {fileID: 0}
    - target: {fileID: 242827740321673059, guid: 5e0bd4772ef82ae46b54489c9fcc61a0, type: 3}
      propertyPath: m_LocalPosition.x
      value: 4.645453
      objectReference: {fileID: 0}
    - target: {fileID: 242827740321673059, guid: 5e0bd4772ef82ae46b54489c9fcc61a0, type: 3}
      propertyPath: m_LocalPosition.y
      value: 5.25
      objectReference: {fileID: 0}
    - target: {fileID: 242827740321673059, guid: 5e0bd4772ef82ae46b54489c9fcc61a0, type: 3}
      propertyPath: m_LocalPosition.z
      value: 15.73
      objectReference: {fileID: 0}
    - target: {fileID: 242827740321673059, guid: 5e0bd4772ef82ae46b54489c9fcc61a0, type: 3}
      propertyPath: m_LocalRotation.w
      value: 1
      objectReference: {fileID: 0}
    - target: {fileID: 242827740321673059, guid: 5e0bd4772ef82ae46b54489c9fcc61a0, type: 3}
      propertyPath: m_LocalRotation.x
      value: 0
      objectReference: {fileID: 0}
    - target: {fileID: 242827740321673059, guid: 5e0bd4772ef82ae46b54489c9fcc61a0, type: 3}
      propertyPath: m_LocalRotation.y
      value: 0
      objectReference: {fileID: 0}
    - target: {fileID: 242827740321673059, guid: 5e0bd4772ef82ae46b54489c9fcc61a0, type: 3}
      propertyPath: m_LocalRotation.z
      value: 0
      objectReference: {fileID: 0}
    - target: {fileID: 242827740321673059, guid: 5e0bd4772ef82ae46b54489c9fcc61a0, type: 3}
      propertyPath: m_LocalEulerAnglesHint.x
      value: 0
      objectReference: {fileID: 0}
    - target: {fileID: 242827740321673059, guid: 5e0bd4772ef82ae46b54489c9fcc61a0, type: 3}
      propertyPath: m_LocalEulerAnglesHint.y
      value: 0
      objectReference: {fileID: 0}
    - target: {fileID: 242827740321673059, guid: 5e0bd4772ef82ae46b54489c9fcc61a0, type: 3}
      propertyPath: m_LocalEulerAnglesHint.z
      value: 0
      objectReference: {fileID: 0}
    - target: {fileID: 5492312344283193013, guid: 5e0bd4772ef82ae46b54489c9fcc61a0, type: 3}
      propertyPath: m_Name
      value: cube (7)
      objectReference: {fileID: 0}
    m_RemovedComponents: []
  m_SourcePrefab: {fileID: 100100000, guid: 5e0bd4772ef82ae46b54489c9fcc61a0, type: 3}
--- !u!1001 &669340239
PrefabInstance:
  m_ObjectHideFlags: 0
  serializedVersion: 2
  m_Modification:
    m_TransformParent: {fileID: 0}
    m_Modifications:
    - target: {fileID: 242827740321673059, guid: 5e0bd4772ef82ae46b54489c9fcc61a0, type: 3}
      propertyPath: m_RootOrder
      value: 10
      objectReference: {fileID: 0}
    - target: {fileID: 242827740321673059, guid: 5e0bd4772ef82ae46b54489c9fcc61a0, type: 3}
      propertyPath: m_LocalPosition.x
      value: 18.64545
      objectReference: {fileID: 0}
    - target: {fileID: 242827740321673059, guid: 5e0bd4772ef82ae46b54489c9fcc61a0, type: 3}
      propertyPath: m_LocalPosition.y
      value: 5.25
      objectReference: {fileID: 0}
    - target: {fileID: 242827740321673059, guid: 5e0bd4772ef82ae46b54489c9fcc61a0, type: 3}
      propertyPath: m_LocalPosition.z
      value: 15.73
      objectReference: {fileID: 0}
    - target: {fileID: 242827740321673059, guid: 5e0bd4772ef82ae46b54489c9fcc61a0, type: 3}
      propertyPath: m_LocalRotation.w
      value: 1
      objectReference: {fileID: 0}
    - target: {fileID: 242827740321673059, guid: 5e0bd4772ef82ae46b54489c9fcc61a0, type: 3}
      propertyPath: m_LocalRotation.x
      value: 0
      objectReference: {fileID: 0}
    - target: {fileID: 242827740321673059, guid: 5e0bd4772ef82ae46b54489c9fcc61a0, type: 3}
      propertyPath: m_LocalRotation.y
      value: 0
      objectReference: {fileID: 0}
    - target: {fileID: 242827740321673059, guid: 5e0bd4772ef82ae46b54489c9fcc61a0, type: 3}
      propertyPath: m_LocalRotation.z
      value: 0
      objectReference: {fileID: 0}
    - target: {fileID: 242827740321673059, guid: 5e0bd4772ef82ae46b54489c9fcc61a0, type: 3}
      propertyPath: m_LocalEulerAnglesHint.x
      value: 0
      objectReference: {fileID: 0}
    - target: {fileID: 242827740321673059, guid: 5e0bd4772ef82ae46b54489c9fcc61a0, type: 3}
      propertyPath: m_LocalEulerAnglesHint.y
      value: 0
      objectReference: {fileID: 0}
    - target: {fileID: 242827740321673059, guid: 5e0bd4772ef82ae46b54489c9fcc61a0, type: 3}
      propertyPath: m_LocalEulerAnglesHint.z
      value: 0
      objectReference: {fileID: 0}
    - target: {fileID: 5492312344283193013, guid: 5e0bd4772ef82ae46b54489c9fcc61a0, type: 3}
      propertyPath: m_Name
      value: cube (6)
      objectReference: {fileID: 0}
    m_RemovedComponents: []
  m_SourcePrefab: {fileID: 100100000, guid: 5e0bd4772ef82ae46b54489c9fcc61a0, type: 3}
--- !u!1001 &1253238135
PrefabInstance:
  m_ObjectHideFlags: 0
  serializedVersion: 2
  m_Modification:
    m_TransformParent: {fileID: 0}
    m_Modifications:
    - target: {fileID: 242827740321673059, guid: 5e0bd4772ef82ae46b54489c9fcc61a0, type: 3}
      propertyPath: m_RootOrder
      value: 19
      objectReference: {fileID: 0}
    - target: {fileID: 242827740321673059, guid: 5e0bd4772ef82ae46b54489c9fcc61a0, type: 3}
      propertyPath: m_LocalPosition.x
      value: -12.645453
      objectReference: {fileID: 0}
    - target: {fileID: 242827740321673059, guid: 5e0bd4772ef82ae46b54489c9fcc61a0, type: 3}
      propertyPath: m_LocalPosition.y
      value: 5.25
      objectReference: {fileID: 0}
    - target: {fileID: 242827740321673059, guid: 5e0bd4772ef82ae46b54489c9fcc61a0, type: 3}
      propertyPath: m_LocalPosition.z
      value: 15.73
      objectReference: {fileID: 0}
    - target: {fileID: 242827740321673059, guid: 5e0bd4772ef82ae46b54489c9fcc61a0, type: 3}
      propertyPath: m_LocalRotation.w
      value: 1
      objectReference: {fileID: 0}
    - target: {fileID: 242827740321673059, guid: 5e0bd4772ef82ae46b54489c9fcc61a0, type: 3}
      propertyPath: m_LocalRotation.x
      value: 0
      objectReference: {fileID: 0}
    - target: {fileID: 242827740321673059, guid: 5e0bd4772ef82ae46b54489c9fcc61a0, type: 3}
      propertyPath: m_LocalRotation.y
      value: 0
      objectReference: {fileID: 0}
    - target: {fileID: 242827740321673059, guid: 5e0bd4772ef82ae46b54489c9fcc61a0, type: 3}
      propertyPath: m_LocalRotation.z
      value: 0
      objectReference: {fileID: 0}
    - target: {fileID: 242827740321673059, guid: 5e0bd4772ef82ae46b54489c9fcc61a0, type: 3}
      propertyPath: m_LocalEulerAnglesHint.x
      value: 0
      objectReference: {fileID: 0}
    - target: {fileID: 242827740321673059, guid: 5e0bd4772ef82ae46b54489c9fcc61a0, type: 3}
      propertyPath: m_LocalEulerAnglesHint.y
      value: 0
      objectReference: {fileID: 0}
    - target: {fileID: 242827740321673059, guid: 5e0bd4772ef82ae46b54489c9fcc61a0, type: 3}
      propertyPath: m_LocalEulerAnglesHint.z
      value: 0
      objectReference: {fileID: 0}
    - target: {fileID: 5492312344283193013, guid: 5e0bd4772ef82ae46b54489c9fcc61a0, type: 3}
      propertyPath: m_Name
      value: cube (15)
      objectReference: {fileID: 0}
    m_RemovedComponents: []
  m_SourcePrefab: {fileID: 100100000, guid: 5e0bd4772ef82ae46b54489c9fcc61a0, type: 3}
--- !u!1001 &1327762306
PrefabInstance:
  m_ObjectHideFlags: 0
  serializedVersion: 2
  m_Modification:
    m_TransformParent: {fileID: 0}
    m_Modifications:
    - target: {fileID: 242827740321673059, guid: 5e0bd4772ef82ae46b54489c9fcc61a0, type: 3}
      propertyPath: m_RootOrder
      value: 23
      objectReference: {fileID: 0}
    - target: {fileID: 242827740321673059, guid: 5e0bd4772ef82ae46b54489c9fcc61a0, type: 3}
      propertyPath: m_LocalPosition.x
      value: -1.01
      objectReference: {fileID: 0}
    - target: {fileID: 242827740321673059, guid: 5e0bd4772ef82ae46b54489c9fcc61a0, type: 3}
      propertyPath: m_LocalPosition.y
      value: 5.25
      objectReference: {fileID: 0}
    - target: {fileID: 242827740321673059, guid: 5e0bd4772ef82ae46b54489c9fcc61a0, type: 3}
      propertyPath: m_LocalPosition.z
      value: 15.73
      objectReference: {fileID: 0}
    - target: {fileID: 242827740321673059, guid: 5e0bd4772ef82ae46b54489c9fcc61a0, type: 3}
      propertyPath: m_LocalRotation.w
      value: 1
      objectReference: {fileID: 0}
    - target: {fileID: 242827740321673059, guid: 5e0bd4772ef82ae46b54489c9fcc61a0, type: 3}
      propertyPath: m_LocalRotation.x
      value: 0
      objectReference: {fileID: 0}
    - target: {fileID: 242827740321673059, guid: 5e0bd4772ef82ae46b54489c9fcc61a0, type: 3}
      propertyPath: m_LocalRotation.y
      value: 0
      objectReference: {fileID: 0}
    - target: {fileID: 242827740321673059, guid: 5e0bd4772ef82ae46b54489c9fcc61a0, type: 3}
      propertyPath: m_LocalRotation.z
      value: 0
      objectReference: {fileID: 0}
    - target: {fileID: 242827740321673059, guid: 5e0bd4772ef82ae46b54489c9fcc61a0, type: 3}
      propertyPath: m_LocalEulerAnglesHint.x
      value: 0
      objectReference: {fileID: 0}
    - target: {fileID: 242827740321673059, guid: 5e0bd4772ef82ae46b54489c9fcc61a0, type: 3}
      propertyPath: m_LocalEulerAnglesHint.y
      value: 0
      objectReference: {fileID: 0}
    - target: {fileID: 242827740321673059, guid: 5e0bd4772ef82ae46b54489c9fcc61a0, type: 3}
      propertyPath: m_LocalEulerAnglesHint.z
      value: 0
      objectReference: {fileID: 0}
    - target: {fileID: 5492312344283193013, guid: 5e0bd4772ef82ae46b54489c9fcc61a0, type: 3}
      propertyPath: m_Name
      value: cube (19)
      objectReference: {fileID: 0}
    m_RemovedComponents: []
  m_SourcePrefab: {fileID: 100100000, guid: 5e0bd4772ef82ae46b54489c9fcc61a0, type: 3}
--- !u!1001 &1411730862
PrefabInstance:
  m_ObjectHideFlags: 0
  serializedVersion: 2
  m_Modification:
    m_TransformParent: {fileID: 0}
    m_Modifications:
    - target: {fileID: 242827740321673059, guid: 5e0bd4772ef82ae46b54489c9fcc61a0, type: 3}
      propertyPath: m_RootOrder
      value: 6
      objectReference: {fileID: 0}
    - target: {fileID: 242827740321673059, guid: 5e0bd4772ef82ae46b54489c9fcc61a0, type: 3}
      propertyPath: m_LocalPosition.x
      value: 10.645453
      objectReference: {fileID: 0}
    - target: {fileID: 242827740321673059, guid: 5e0bd4772ef82ae46b54489c9fcc61a0, type: 3}
      propertyPath: m_LocalPosition.y
      value: 5.25
      objectReference: {fileID: 0}
    - target: {fileID: 242827740321673059, guid: 5e0bd4772ef82ae46b54489c9fcc61a0, type: 3}
      propertyPath: m_LocalPosition.z
      value: 15.73
      objectReference: {fileID: 0}
    - target: {fileID: 242827740321673059, guid: 5e0bd4772ef82ae46b54489c9fcc61a0, type: 3}
      propertyPath: m_LocalRotation.w
      value: 1
      objectReference: {fileID: 0}
    - target: {fileID: 242827740321673059, guid: 5e0bd4772ef82ae46b54489c9fcc61a0, type: 3}
      propertyPath: m_LocalRotation.x
      value: 0
      objectReference: {fileID: 0}
    - target: {fileID: 242827740321673059, guid: 5e0bd4772ef82ae46b54489c9fcc61a0, type: 3}
      propertyPath: m_LocalRotation.y
      value: 0
      objectReference: {fileID: 0}
    - target: {fileID: 242827740321673059, guid: 5e0bd4772ef82ae46b54489c9fcc61a0, type: 3}
      propertyPath: m_LocalRotation.z
      value: 0
      objectReference: {fileID: 0}
    - target: {fileID: 242827740321673059, guid: 5e0bd4772ef82ae46b54489c9fcc61a0, type: 3}
      propertyPath: m_LocalEulerAnglesHint.x
      value: 0
      objectReference: {fileID: 0}
    - target: {fileID: 242827740321673059, guid: 5e0bd4772ef82ae46b54489c9fcc61a0, type: 3}
      propertyPath: m_LocalEulerAnglesHint.y
      value: 0
      objectReference: {fileID: 0}
    - target: {fileID: 242827740321673059, guid: 5e0bd4772ef82ae46b54489c9fcc61a0, type: 3}
      propertyPath: m_LocalEulerAnglesHint.z
      value: 0
      objectReference: {fileID: 0}
    - target: {fileID: 5492312344283193013, guid: 5e0bd4772ef82ae46b54489c9fcc61a0, type: 3}
      propertyPath: m_Name
      value: cube (2)
      objectReference: {fileID: 0}
    m_RemovedComponents: []
  m_SourcePrefab: {fileID: 100100000, guid: 5e0bd4772ef82ae46b54489c9fcc61a0, type: 3}
--- !u!1001 &1440773752
PrefabInstance:
  m_ObjectHideFlags: 0
  serializedVersion: 2
  m_Modification:
    m_TransformParent: {fileID: 0}
    m_Modifications:
    - target: {fileID: 242827740321673059, guid: 5e0bd4772ef82ae46b54489c9fcc61a0, type: 3}
      propertyPath: m_RootOrder
      value: 16
      objectReference: {fileID: 0}
    - target: {fileID: 242827740321673059, guid: 5e0bd4772ef82ae46b54489c9fcc61a0, type: 3}
      propertyPath: m_LocalPosition.x
      value: -6.645453
      objectReference: {fileID: 0}
    - target: {fileID: 242827740321673059, guid: 5e0bd4772ef82ae46b54489c9fcc61a0, type: 3}
      propertyPath: m_LocalPosition.y
      value: 5.25
      objectReference: {fileID: 0}
    - target: {fileID: 242827740321673059, guid: 5e0bd4772ef82ae46b54489c9fcc61a0, type: 3}
      propertyPath: m_LocalPosition.z
      value: 15.73
      objectReference: {fileID: 0}
    - target: {fileID: 242827740321673059, guid: 5e0bd4772ef82ae46b54489c9fcc61a0, type: 3}
      propertyPath: m_LocalRotation.w
      value: 1
      objectReference: {fileID: 0}
    - target: {fileID: 242827740321673059, guid: 5e0bd4772ef82ae46b54489c9fcc61a0, type: 3}
      propertyPath: m_LocalRotation.x
      value: 0
      objectReference: {fileID: 0}
    - target: {fileID: 242827740321673059, guid: 5e0bd4772ef82ae46b54489c9fcc61a0, type: 3}
      propertyPath: m_LocalRotation.y
      value: 0
      objectReference: {fileID: 0}
    - target: {fileID: 242827740321673059, guid: 5e0bd4772ef82ae46b54489c9fcc61a0, type: 3}
      propertyPath: m_LocalRotation.z
      value: 0
      objectReference: {fileID: 0}
    - target: {fileID: 242827740321673059, guid: 5e0bd4772ef82ae46b54489c9fcc61a0, type: 3}
      propertyPath: m_LocalEulerAnglesHint.x
      value: 0
      objectReference: {fileID: 0}
    - target: {fileID: 242827740321673059, guid: 5e0bd4772ef82ae46b54489c9fcc61a0, type: 3}
      propertyPath: m_LocalEulerAnglesHint.y
      value: 0
      objectReference: {fileID: 0}
    - target: {fileID: 242827740321673059, guid: 5e0bd4772ef82ae46b54489c9fcc61a0, type: 3}
      propertyPath: m_LocalEulerAnglesHint.z
      value: 0
      objectReference: {fileID: 0}
    - target: {fileID: 5492312344283193013, guid: 5e0bd4772ef82ae46b54489c9fcc61a0, type: 3}
      propertyPath: m_Name
      value: cube (12)
      objectReference: {fileID: 0}
    m_RemovedComponents: []
  m_SourcePrefab: {fileID: 100100000, guid: 5e0bd4772ef82ae46b54489c9fcc61a0, type: 3}
--- !u!1001 &1499405280
PrefabInstance:
  m_ObjectHideFlags: 0
  serializedVersion: 2
  m_Modification:
    m_TransformParent: {fileID: 0}
    m_Modifications:
    - target: {fileID: 242827740321673059, guid: 5e0bd4772ef82ae46b54489c9fcc61a0, type: 3}
      propertyPath: m_RootOrder
      value: 7
      objectReference: {fileID: 0}
    - target: {fileID: 242827740321673059, guid: 5e0bd4772ef82ae46b54489c9fcc61a0, type: 3}
      propertyPath: m_LocalPosition.x
      value: 12.64545
      objectReference: {fileID: 0}
    - target: {fileID: 242827740321673059, guid: 5e0bd4772ef82ae46b54489c9fcc61a0, type: 3}
      propertyPath: m_LocalPosition.y
      value: 5.25
      objectReference: {fileID: 0}
    - target: {fileID: 242827740321673059, guid: 5e0bd4772ef82ae46b54489c9fcc61a0, type: 3}
      propertyPath: m_LocalPosition.z
      value: 15.73
      objectReference: {fileID: 0}
    - target: {fileID: 242827740321673059, guid: 5e0bd4772ef82ae46b54489c9fcc61a0, type: 3}
      propertyPath: m_LocalRotation.w
      value: 1
      objectReference: {fileID: 0}
    - target: {fileID: 242827740321673059, guid: 5e0bd4772ef82ae46b54489c9fcc61a0, type: 3}
      propertyPath: m_LocalRotation.x
      value: 0
      objectReference: {fileID: 0}
    - target: {fileID: 242827740321673059, guid: 5e0bd4772ef82ae46b54489c9fcc61a0, type: 3}
      propertyPath: m_LocalRotation.y
      value: 0
      objectReference: {fileID: 0}
    - target: {fileID: 242827740321673059, guid: 5e0bd4772ef82ae46b54489c9fcc61a0, type: 3}
      propertyPath: m_LocalRotation.z
      value: 0
      objectReference: {fileID: 0}
    - target: {fileID: 242827740321673059, guid: 5e0bd4772ef82ae46b54489c9fcc61a0, type: 3}
      propertyPath: m_LocalEulerAnglesHint.x
      value: 0
      objectReference: {fileID: 0}
    - target: {fileID: 242827740321673059, guid: 5e0bd4772ef82ae46b54489c9fcc61a0, type: 3}
      propertyPath: m_LocalEulerAnglesHint.y
      value: 0
      objectReference: {fileID: 0}
    - target: {fileID: 242827740321673059, guid: 5e0bd4772ef82ae46b54489c9fcc61a0, type: 3}
      propertyPath: m_LocalEulerAnglesHint.z
      value: 0
      objectReference: {fileID: 0}
    - target: {fileID: 5492312344283193013, guid: 5e0bd4772ef82ae46b54489c9fcc61a0, type: 3}
      propertyPath: m_Name
      value: cube (3)
      objectReference: {fileID: 0}
    m_RemovedComponents: []
  m_SourcePrefab: {fileID: 100100000, guid: 5e0bd4772ef82ae46b54489c9fcc61a0, type: 3}
--- !u!1001 &1524578192
PrefabInstance:
  m_ObjectHideFlags: 0
  serializedVersion: 2
  m_Modification:
    m_TransformParent: {fileID: 0}
    m_Modifications:
    - target: {fileID: 242827740321673059, guid: 5e0bd4772ef82ae46b54489c9fcc61a0, type: 3}
      propertyPath: m_RootOrder
      value: 22
      objectReference: {fileID: 0}
    - target: {fileID: 242827740321673059, guid: 5e0bd4772ef82ae46b54489c9fcc61a0, type: 3}
      propertyPath: m_LocalPosition.x
      value: -18.645452
      objectReference: {fileID: 0}
    - target: {fileID: 242827740321673059, guid: 5e0bd4772ef82ae46b54489c9fcc61a0, type: 3}
      propertyPath: m_LocalPosition.y
      value: 5.25
      objectReference: {fileID: 0}
    - target: {fileID: 242827740321673059, guid: 5e0bd4772ef82ae46b54489c9fcc61a0, type: 3}
      propertyPath: m_LocalPosition.z
      value: 15.73
      objectReference: {fileID: 0}
    - target: {fileID: 242827740321673059, guid: 5e0bd4772ef82ae46b54489c9fcc61a0, type: 3}
      propertyPath: m_LocalRotation.w
      value: 1
      objectReference: {fileID: 0}
    - target: {fileID: 242827740321673059, guid: 5e0bd4772ef82ae46b54489c9fcc61a0, type: 3}
      propertyPath: m_LocalRotation.x
      value: 0
      objectReference: {fileID: 0}
    - target: {fileID: 242827740321673059, guid: 5e0bd4772ef82ae46b54489c9fcc61a0, type: 3}
      propertyPath: m_LocalRotation.y
      value: 0
      objectReference: {fileID: 0}
    - target: {fileID: 242827740321673059, guid: 5e0bd4772ef82ae46b54489c9fcc61a0, type: 3}
      propertyPath: m_LocalRotation.z
      value: 0
      objectReference: {fileID: 0}
    - target: {fileID: 242827740321673059, guid: 5e0bd4772ef82ae46b54489c9fcc61a0, type: 3}
      propertyPath: m_LocalEulerAnglesHint.x
      value: 0
      objectReference: {fileID: 0}
    - target: {fileID: 242827740321673059, guid: 5e0bd4772ef82ae46b54489c9fcc61a0, type: 3}
      propertyPath: m_LocalEulerAnglesHint.y
      value: 0
      objectReference: {fileID: 0}
    - target: {fileID: 242827740321673059, guid: 5e0bd4772ef82ae46b54489c9fcc61a0, type: 3}
      propertyPath: m_LocalEulerAnglesHint.z
      value: 0
      objectReference: {fileID: 0}
    - target: {fileID: 5492312344283193013, guid: 5e0bd4772ef82ae46b54489c9fcc61a0, type: 3}
      propertyPath: m_Name
      value: cube (18)
      objectReference: {fileID: 0}
    m_RemovedComponents: []
  m_SourcePrefab: {fileID: 100100000, guid: 5e0bd4772ef82ae46b54489c9fcc61a0, type: 3}
--- !u!1001 &1549783234
PrefabInstance:
  m_ObjectHideFlags: 0
  serializedVersion: 2
  m_Modification:
    m_TransformParent: {fileID: 0}
    m_Modifications:
    - target: {fileID: 242827740321673059, guid: 5e0bd4772ef82ae46b54489c9fcc61a0, type: 3}
      propertyPath: m_RootOrder
      value: 13
      objectReference: {fileID: 0}
    - target: {fileID: 242827740321673059, guid: 5e0bd4772ef82ae46b54489c9fcc61a0, type: 3}
      propertyPath: m_LocalPosition.x
      value: 0.645453
      objectReference: {fileID: 0}
    - target: {fileID: 242827740321673059, guid: 5e0bd4772ef82ae46b54489c9fcc61a0, type: 3}
      propertyPath: m_LocalPosition.y
      value: 5.25
      objectReference: {fileID: 0}
    - target: {fileID: 242827740321673059, guid: 5e0bd4772ef82ae46b54489c9fcc61a0, type: 3}
      propertyPath: m_LocalPosition.z
      value: 15.73
      objectReference: {fileID: 0}
    - target: {fileID: 242827740321673059, guid: 5e0bd4772ef82ae46b54489c9fcc61a0, type: 3}
      propertyPath: m_LocalRotation.w
      value: 1
      objectReference: {fileID: 0}
    - target: {fileID: 242827740321673059, guid: 5e0bd4772ef82ae46b54489c9fcc61a0, type: 3}
      propertyPath: m_LocalRotation.x
      value: 0
      objectReference: {fileID: 0}
    - target: {fileID: 242827740321673059, guid: 5e0bd4772ef82ae46b54489c9fcc61a0, type: 3}
      propertyPath: m_LocalRotation.y
      value: 0
      objectReference: {fileID: 0}
    - target: {fileID: 242827740321673059, guid: 5e0bd4772ef82ae46b54489c9fcc61a0, type: 3}
      propertyPath: m_LocalRotation.z
      value: 0
      objectReference: {fileID: 0}
    - target: {fileID: 242827740321673059, guid: 5e0bd4772ef82ae46b54489c9fcc61a0, type: 3}
      propertyPath: m_LocalEulerAnglesHint.x
      value: 0
      objectReference: {fileID: 0}
    - target: {fileID: 242827740321673059, guid: 5e0bd4772ef82ae46b54489c9fcc61a0, type: 3}
      propertyPath: m_LocalEulerAnglesHint.y
      value: 0
      objectReference: {fileID: 0}
    - target: {fileID: 242827740321673059, guid: 5e0bd4772ef82ae46b54489c9fcc61a0, type: 3}
      propertyPath: m_LocalEulerAnglesHint.z
      value: 0
      objectReference: {fileID: 0}
    - target: {fileID: 5492312344283193013, guid: 5e0bd4772ef82ae46b54489c9fcc61a0, type: 3}
      propertyPath: m_Name
      value: cube (9)
      objectReference: {fileID: 0}
    m_RemovedComponents: []
  m_SourcePrefab: {fileID: 100100000, guid: 5e0bd4772ef82ae46b54489c9fcc61a0, type: 3}
--- !u!1001 &1558055019
PrefabInstance:
  m_ObjectHideFlags: 0
  serializedVersion: 2
  m_Modification:
    m_TransformParent: {fileID: 0}
    m_Modifications:
    - target: {fileID: 242827740321673059, guid: 5e0bd4772ef82ae46b54489c9fcc61a0, type: 3}
      propertyPath: m_RootOrder
      value: 17
      objectReference: {fileID: 0}
    - target: {fileID: 242827740321673059, guid: 5e0bd4772ef82ae46b54489c9fcc61a0, type: 3}
      propertyPath: m_LocalPosition.x
      value: -8.645453
      objectReference: {fileID: 0}
    - target: {fileID: 242827740321673059, guid: 5e0bd4772ef82ae46b54489c9fcc61a0, type: 3}
      propertyPath: m_LocalPosition.y
      value: 5.25
      objectReference: {fileID: 0}
    - target: {fileID: 242827740321673059, guid: 5e0bd4772ef82ae46b54489c9fcc61a0, type: 3}
      propertyPath: m_LocalPosition.z
      value: 15.73
      objectReference: {fileID: 0}
    - target: {fileID: 242827740321673059, guid: 5e0bd4772ef82ae46b54489c9fcc61a0, type: 3}
      propertyPath: m_LocalRotation.w
      value: 1
      objectReference: {fileID: 0}
    - target: {fileID: 242827740321673059, guid: 5e0bd4772ef82ae46b54489c9fcc61a0, type: 3}
      propertyPath: m_LocalRotation.x
      value: 0
      objectReference: {fileID: 0}
    - target: {fileID: 242827740321673059, guid: 5e0bd4772ef82ae46b54489c9fcc61a0, type: 3}
      propertyPath: m_LocalRotation.y
      value: 0
      objectReference: {fileID: 0}
    - target: {fileID: 242827740321673059, guid: 5e0bd4772ef82ae46b54489c9fcc61a0, type: 3}
      propertyPath: m_LocalRotation.z
      value: 0
      objectReference: {fileID: 0}
    - target: {fileID: 242827740321673059, guid: 5e0bd4772ef82ae46b54489c9fcc61a0, type: 3}
      propertyPath: m_LocalEulerAnglesHint.x
      value: 0
      objectReference: {fileID: 0}
    - target: {fileID: 242827740321673059, guid: 5e0bd4772ef82ae46b54489c9fcc61a0, type: 3}
      propertyPath: m_LocalEulerAnglesHint.y
      value: 0
      objectReference: {fileID: 0}
    - target: {fileID: 242827740321673059, guid: 5e0bd4772ef82ae46b54489c9fcc61a0, type: 3}
      propertyPath: m_LocalEulerAnglesHint.z
      value: 0
      objectReference: {fileID: 0}
    - target: {fileID: 5492312344283193013, guid: 5e0bd4772ef82ae46b54489c9fcc61a0, type: 3}
      propertyPath: m_Name
      value: cube (13)
      objectReference: {fileID: 0}
    m_RemovedComponents: []
  m_SourcePrefab: {fileID: 100100000, guid: 5e0bd4772ef82ae46b54489c9fcc61a0, type: 3}
--- !u!1 &1571375833
GameObject:
  m_ObjectHideFlags: 0
  m_CorrespondingSourceObject: {fileID: 0}
  m_PrefabInstance: {fileID: 0}
  m_PrefabAsset: {fileID: 0}
  serializedVersion: 6
  m_Component:
  - component: {fileID: 1571375835}
  - component: {fileID: 1571375834}
  m_Layer: 0
  m_Name: Directional Light
  m_TagString: Untagged
  m_Icon: {fileID: 0}
  m_NavMeshLayer: 0
  m_StaticEditorFlags: 0
  m_IsActive: 1
--- !u!108 &1571375834
Light:
  m_ObjectHideFlags: 0
  m_CorrespondingSourceObject: {fileID: 0}
  m_PrefabInstance: {fileID: 0}
  m_PrefabAsset: {fileID: 0}
  m_GameObject: {fileID: 1571375833}
  m_Enabled: 1
  serializedVersion: 10
  m_Type: 1
  m_Shape: 0
  m_Color: {r: 1, g: 0.95686275, b: 0.8392157, a: 1}
  m_Intensity: 1
  m_Range: 10
  m_SpotAngle: 30
  m_InnerSpotAngle: 21.80208
  m_CookieSize: 10
  m_Shadows:
    m_Type: 2
    m_Resolution: -1
    m_CustomResolution: -1
    m_Strength: 1
    m_Bias: 0.05
    m_NormalBias: 0.4
    m_NearPlane: 0.2
    m_CullingMatrixOverride:
      e00: 1
      e01: 0
      e02: 0
      e03: 0
      e10: 0
      e11: 1
      e12: 0
      e13: 0
      e20: 0
      e21: 0
      e22: 1
      e23: 0
      e30: 0
      e31: 0
      e32: 0
      e33: 1
    m_UseCullingMatrixOverride: 0
  m_Cookie: {fileID: 0}
  m_DrawHalo: 0
  m_Flare: {fileID: 0}
  m_RenderMode: 0
  m_CullingMask:
    serializedVersion: 2
    m_Bits: 4294967295
  m_RenderingLayerMask: 1
  m_Lightmapping: 4
  m_LightShadowCasterMode: 0
  m_AreaSize: {x: 1, y: 1}
  m_BounceIntensity: 1
  m_ColorTemperature: 6570
  m_UseColorTemperature: 0
  m_BoundingSphereOverride: {x: 0, y: 0, z: 0, w: 0}
  m_UseBoundingSphereOverride: 0
  m_UseViewFrustumForShadowCasterCull: 1
  m_ShadowRadius: 0
  m_ShadowAngle: 0
--- !u!4 &1571375835
Transform:
  m_ObjectHideFlags: 0
  m_CorrespondingSourceObject: {fileID: 0}
  m_PrefabInstance: {fileID: 0}
  m_PrefabAsset: {fileID: 0}
  m_GameObject: {fileID: 1571375833}
  m_LocalRotation: {x: 0.40821788, y: -0.23456968, z: 0.10938163, w: 0.8754261}
  m_LocalPosition: {x: 0, y: 3, z: 0}
  m_LocalScale: {x: 1, y: 1, z: 1}
  m_ConstrainProportionsScale: 0
  m_Children: []
  m_Father: {fileID: 0}
  m_RootOrder: 1
  m_LocalEulerAnglesHint: {x: 50, y: -30, z: 0}
--- !u!1001 &1584134019
PrefabInstance:
  m_ObjectHideFlags: 0
  serializedVersion: 2
  m_Modification:
    m_TransformParent: {fileID: 0}
    m_Modifications:
    - target: {fileID: 242827740321673059, guid: 5e0bd4772ef82ae46b54489c9fcc61a0, type: 3}
      propertyPath: m_RootOrder
      value: 8
      objectReference: {fileID: 0}
    - target: {fileID: 242827740321673059, guid: 5e0bd4772ef82ae46b54489c9fcc61a0, type: 3}
      propertyPath: m_LocalPosition.x
      value: 14.64545
      objectReference: {fileID: 0}
    - target: {fileID: 242827740321673059, guid: 5e0bd4772ef82ae46b54489c9fcc61a0, type: 3}
      propertyPath: m_LocalPosition.y
      value: 5.25
      objectReference: {fileID: 0}
    - target: {fileID: 242827740321673059, guid: 5e0bd4772ef82ae46b54489c9fcc61a0, type: 3}
      propertyPath: m_LocalPosition.z
      value: 15.73
      objectReference: {fileID: 0}
    - target: {fileID: 242827740321673059, guid: 5e0bd4772ef82ae46b54489c9fcc61a0, type: 3}
      propertyPath: m_LocalRotation.w
      value: 1
      objectReference: {fileID: 0}
    - target: {fileID: 242827740321673059, guid: 5e0bd4772ef82ae46b54489c9fcc61a0, type: 3}
      propertyPath: m_LocalRotation.x
      value: 0
      objectReference: {fileID: 0}
    - target: {fileID: 242827740321673059, guid: 5e0bd4772ef82ae46b54489c9fcc61a0, type: 3}
      propertyPath: m_LocalRotation.y
      value: 0
      objectReference: {fileID: 0}
    - target: {fileID: 242827740321673059, guid: 5e0bd4772ef82ae46b54489c9fcc61a0, type: 3}
      propertyPath: m_LocalRotation.z
      value: 0
      objectReference: {fileID: 0}
    - target: {fileID: 242827740321673059, guid: 5e0bd4772ef82ae46b54489c9fcc61a0, type: 3}
      propertyPath: m_LocalEulerAnglesHint.x
      value: 0
      objectReference: {fileID: 0}
    - target: {fileID: 242827740321673059, guid: 5e0bd4772ef82ae46b54489c9fcc61a0, type: 3}
      propertyPath: m_LocalEulerAnglesHint.y
      value: 0
      objectReference: {fileID: 0}
    - target: {fileID: 242827740321673059, guid: 5e0bd4772ef82ae46b54489c9fcc61a0, type: 3}
      propertyPath: m_LocalEulerAnglesHint.z
      value: 0
      objectReference: {fileID: 0}
    - target: {fileID: 5492312344283193013, guid: 5e0bd4772ef82ae46b54489c9fcc61a0, type: 3}
      propertyPath: m_Name
      value: cube (4)
      objectReference: {fileID: 0}
    m_RemovedComponents: []
  m_SourcePrefab: {fileID: 100100000, guid: 5e0bd4772ef82ae46b54489c9fcc61a0, type: 3}
--- !u!1001 &1635421303
PrefabInstance:
  m_ObjectHideFlags: 0
  serializedVersion: 2
  m_Modification:
    m_TransformParent: {fileID: 0}
    m_Modifications:
    - target: {fileID: 242827740321673059, guid: 5e0bd4772ef82ae46b54489c9fcc61a0, type: 3}
      propertyPath: m_RootOrder
      value: 21
      objectReference: {fileID: 0}
    - target: {fileID: 242827740321673059, guid: 5e0bd4772ef82ae46b54489c9fcc61a0, type: 3}
      propertyPath: m_LocalPosition.x
      value: -16.645452
      objectReference: {fileID: 0}
    - target: {fileID: 242827740321673059, guid: 5e0bd4772ef82ae46b54489c9fcc61a0, type: 3}
      propertyPath: m_LocalPosition.y
      value: 5.25
      objectReference: {fileID: 0}
    - target: {fileID: 242827740321673059, guid: 5e0bd4772ef82ae46b54489c9fcc61a0, type: 3}
      propertyPath: m_LocalPosition.z
      value: 15.73
      objectReference: {fileID: 0}
    - target: {fileID: 242827740321673059, guid: 5e0bd4772ef82ae46b54489c9fcc61a0, type: 3}
      propertyPath: m_LocalRotation.w
      value: 1
      objectReference: {fileID: 0}
    - target: {fileID: 242827740321673059, guid: 5e0bd4772ef82ae46b54489c9fcc61a0, type: 3}
      propertyPath: m_LocalRotation.x
      value: 0
      objectReference: {fileID: 0}
    - target: {fileID: 242827740321673059, guid: 5e0bd4772ef82ae46b54489c9fcc61a0, type: 3}
      propertyPath: m_LocalRotation.y
      value: 0
      objectReference: {fileID: 0}
    - target: {fileID: 242827740321673059, guid: 5e0bd4772ef82ae46b54489c9fcc61a0, type: 3}
      propertyPath: m_LocalRotation.z
      value: 0
      objectReference: {fileID: 0}
    - target: {fileID: 242827740321673059, guid: 5e0bd4772ef82ae46b54489c9fcc61a0, type: 3}
      propertyPath: m_LocalEulerAnglesHint.x
      value: 0
      objectReference: {fileID: 0}
    - target: {fileID: 242827740321673059, guid: 5e0bd4772ef82ae46b54489c9fcc61a0, type: 3}
      propertyPath: m_LocalEulerAnglesHint.y
      value: 0
      objectReference: {fileID: 0}
    - target: {fileID: 242827740321673059, guid: 5e0bd4772ef82ae46b54489c9fcc61a0, type: 3}
      propertyPath: m_LocalEulerAnglesHint.z
      value: 0
      objectReference: {fileID: 0}
    - target: {fileID: 5492312344283193013, guid: 5e0bd4772ef82ae46b54489c9fcc61a0, type: 3}
      propertyPath: m_Name
      value: cube (17)
      objectReference: {fileID: 0}
    m_RemovedComponents: []
  m_SourcePrefab: {fileID: 100100000, guid: 5e0bd4772ef82ae46b54489c9fcc61a0, type: 3}
--- !u!1001 &1769093126
PrefabInstance:
  m_ObjectHideFlags: 0
  serializedVersion: 2
  m_Modification:
    m_TransformParent: {fileID: 0}
    m_Modifications:
    - target: {fileID: 242827740321673059, guid: 5e0bd4772ef82ae46b54489c9fcc61a0, type: 3}
      propertyPath: m_RootOrder
      value: 18
      objectReference: {fileID: 0}
    - target: {fileID: 242827740321673059, guid: 5e0bd4772ef82ae46b54489c9fcc61a0, type: 3}
      propertyPath: m_LocalPosition.x
      value: -10.645453
      objectReference: {fileID: 0}
    - target: {fileID: 242827740321673059, guid: 5e0bd4772ef82ae46b54489c9fcc61a0, type: 3}
      propertyPath: m_LocalPosition.y
      value: 5.25
      objectReference: {fileID: 0}
    - target: {fileID: 242827740321673059, guid: 5e0bd4772ef82ae46b54489c9fcc61a0, type: 3}
      propertyPath: m_LocalPosition.z
      value: 15.73
      objectReference: {fileID: 0}
    - target: {fileID: 242827740321673059, guid: 5e0bd4772ef82ae46b54489c9fcc61a0, type: 3}
      propertyPath: m_LocalRotation.w
      value: 1
      objectReference: {fileID: 0}
    - target: {fileID: 242827740321673059, guid: 5e0bd4772ef82ae46b54489c9fcc61a0, type: 3}
      propertyPath: m_LocalRotation.x
      value: 0
      objectReference: {fileID: 0}
    - target: {fileID: 242827740321673059, guid: 5e0bd4772ef82ae46b54489c9fcc61a0, type: 3}
      propertyPath: m_LocalRotation.y
      value: 0
      objectReference: {fileID: 0}
    - target: {fileID: 242827740321673059, guid: 5e0bd4772ef82ae46b54489c9fcc61a0, type: 3}
      propertyPath: m_LocalRotation.z
      value: 0
      objectReference: {fileID: 0}
    - target: {fileID: 242827740321673059, guid: 5e0bd4772ef82ae46b54489c9fcc61a0, type: 3}
      propertyPath: m_LocalEulerAnglesHint.x
      value: 0
      objectReference: {fileID: 0}
    - target: {fileID: 242827740321673059, guid: 5e0bd4772ef82ae46b54489c9fcc61a0, type: 3}
      propertyPath: m_LocalEulerAnglesHint.y
      value: 0
      objectReference: {fileID: 0}
    - target: {fileID: 242827740321673059, guid: 5e0bd4772ef82ae46b54489c9fcc61a0, type: 3}
      propertyPath: m_LocalEulerAnglesHint.z
      value: 0
      objectReference: {fileID: 0}
    - target: {fileID: 5492312344283193013, guid: 5e0bd4772ef82ae46b54489c9fcc61a0, type: 3}
      propertyPath: m_Name
      value: cube (14)
      objectReference: {fileID: 0}
    m_RemovedComponents: []
  m_SourcePrefab: {fileID: 100100000, guid: 5e0bd4772ef82ae46b54489c9fcc61a0, type: 3}
--- !u!1 &1858817251
GameObject:
  m_ObjectHideFlags: 0
  m_CorrespondingSourceObject: {fileID: 0}
  m_PrefabInstance: {fileID: 0}
  m_PrefabAsset: {fileID: 0}
  serializedVersion: 6
  m_Component:
  - component: {fileID: 1858817255}
  - component: {fileID: 1858817254}
  - component: {fileID: 1858817253}
  - component: {fileID: 1858817252}
  - component: {fileID: 1858817256}
  m_Layer: 0
  m_Name: Capsule
  m_TagString: Untagged
  m_Icon: {fileID: 0}
  m_NavMeshLayer: 0
  m_StaticEditorFlags: 0
  m_IsActive: 1
--- !u!136 &1858817252
CapsuleCollider:
  m_ObjectHideFlags: 0
  m_CorrespondingSourceObject: {fileID: 0}
  m_PrefabInstance: {fileID: 0}
  m_PrefabAsset: {fileID: 0}
  m_GameObject: {fileID: 1858817251}
  m_Material: {fileID: 0}
  m_IsTrigger: 0
  m_Enabled: 1
  m_Radius: 0.5
  m_Height: 2
  m_Direction: 1
  m_Center: {x: 0, y: 0, z: 0}
--- !u!23 &1858817253
MeshRenderer:
  m_ObjectHideFlags: 0
  m_CorrespondingSourceObject: {fileID: 0}
  m_PrefabInstance: {fileID: 0}
  m_PrefabAsset: {fileID: 0}
  m_GameObject: {fileID: 1858817251}
  m_Enabled: 1
  m_CastShadows: 1
  m_ReceiveShadows: 1
  m_DynamicOccludee: 1
  m_StaticShadowCaster: 0
  m_MotionVectors: 1
  m_LightProbeUsage: 1
  m_ReflectionProbeUsage: 1
  m_RayTracingMode: 2
  m_RayTraceProcedural: 0
  m_RenderingLayerMask: 1
  m_RendererPriority: 0
  m_Materials:
  - {fileID: 2100000, guid: 94c47306ff9f5e14b8debb3cd166248c, type: 2}
  m_StaticBatchInfo:
    firstSubMesh: 0
    subMeshCount: 0
  m_StaticBatchRoot: {fileID: 0}
  m_ProbeAnchor: {fileID: 0}
  m_LightProbeVolumeOverride: {fileID: 0}
  m_ScaleInLightmap: 1
  m_ReceiveGI: 1
  m_PreserveUVs: 0
  m_IgnoreNormalsForChartDetection: 0
  m_ImportantGI: 0
  m_StitchLightmapSeams: 1
  m_SelectedEditorRenderState: 3
  m_MinimumChartSize: 4
  m_AutoUVMaxDistance: 0.5
  m_AutoUVMaxAngle: 89
  m_LightmapParameters: {fileID: 0}
  m_SortingLayerID: 0
  m_SortingLayer: 0
  m_SortingOrder: 0
  m_AdditionalVertexStreams: {fileID: 0}
--- !u!33 &1858817254
MeshFilter:
  m_ObjectHideFlags: 0
  m_CorrespondingSourceObject: {fileID: 0}
  m_PrefabInstance: {fileID: 0}
  m_PrefabAsset: {fileID: 0}
  m_GameObject: {fileID: 1858817251}
  m_Mesh: {fileID: 10208, guid: 0000000000000000e000000000000000, type: 0}
--- !u!4 &1858817255
Transform:
  m_ObjectHideFlags: 0
  m_CorrespondingSourceObject: {fileID: 0}
  m_PrefabInstance: {fileID: 0}
  m_PrefabAsset: {fileID: 0}
  m_GameObject: {fileID: 1858817251}
  m_LocalRotation: {x: 0, y: 0, z: 0, w: 1}
  m_LocalPosition: {x: -11.28, y: 3.16, z: 1.3175128}
  m_LocalScale: {x: 1, y: 1, z: 1}
  m_ConstrainProportionsScale: 0
  m_Children: []
  m_Father: {fileID: 0}
  m_RootOrder: 3
  m_LocalEulerAnglesHint: {x: 0, y: 0, z: 0}
--- !u!95 &1858817256
Animator:
  serializedVersion: 4
  m_ObjectHideFlags: 0
  m_CorrespondingSourceObject: {fileID: 0}
  m_PrefabInstance: {fileID: 0}
  m_PrefabAsset: {fileID: 0}
  m_GameObject: {fileID: 1858817251}
  m_Enabled: 1
  m_Avatar: {fileID: 0}
  m_Controller: {fileID: 9100000, guid: 1243bb54c4383bd47906e1b9d1dab451, type: 2}
  m_CullingMode: 0
  m_UpdateMode: 0
  m_ApplyRootMotion: 0
  m_LinearVelocityBlending: 0
  m_StabilizeFeet: 0
  m_WarningMessage: 
  m_HasTransformHierarchy: 1
  m_AllowConstantClipSamplingOptimization: 1
  m_KeepAnimatorControllerStateOnDisable: 0
--- !u!1001 &1886262260
PrefabInstance:
  m_ObjectHideFlags: 0
  serializedVersion: 2
  m_Modification:
    m_TransformParent: {fileID: 0}
    m_Modifications:
    - target: {fileID: 242827740321673059, guid: 5e0bd4772ef82ae46b54489c9fcc61a0, type: 3}
      propertyPath: m_RootOrder
      value: 14
      objectReference: {fileID: 0}
    - target: {fileID: 242827740321673059, guid: 5e0bd4772ef82ae46b54489c9fcc61a0, type: 3}
      propertyPath: m_LocalPosition.x
      value: -2.645453
      objectReference: {fileID: 0}
    - target: {fileID: 242827740321673059, guid: 5e0bd4772ef82ae46b54489c9fcc61a0, type: 3}
      propertyPath: m_LocalPosition.y
      value: 5.25
      objectReference: {fileID: 0}
    - target: {fileID: 242827740321673059, guid: 5e0bd4772ef82ae46b54489c9fcc61a0, type: 3}
      propertyPath: m_LocalPosition.z
      value: 15.73
      objectReference: {fileID: 0}
    - target: {fileID: 242827740321673059, guid: 5e0bd4772ef82ae46b54489c9fcc61a0, type: 3}
      propertyPath: m_LocalRotation.w
      value: 1
      objectReference: {fileID: 0}
    - target: {fileID: 242827740321673059, guid: 5e0bd4772ef82ae46b54489c9fcc61a0, type: 3}
      propertyPath: m_LocalRotation.x
      value: 0
      objectReference: {fileID: 0}
    - target: {fileID: 242827740321673059, guid: 5e0bd4772ef82ae46b54489c9fcc61a0, type: 3}
      propertyPath: m_LocalRotation.y
      value: 0
      objectReference: {fileID: 0}
    - target: {fileID: 242827740321673059, guid: 5e0bd4772ef82ae46b54489c9fcc61a0, type: 3}
      propertyPath: m_LocalRotation.z
      value: 0
      objectReference: {fileID: 0}
    - target: {fileID: 242827740321673059, guid: 5e0bd4772ef82ae46b54489c9fcc61a0, type: 3}
      propertyPath: m_LocalEulerAnglesHint.x
      value: 0
      objectReference: {fileID: 0}
    - target: {fileID: 242827740321673059, guid: 5e0bd4772ef82ae46b54489c9fcc61a0, type: 3}
      propertyPath: m_LocalEulerAnglesHint.y
      value: 0
      objectReference: {fileID: 0}
    - target: {fileID: 242827740321673059, guid: 5e0bd4772ef82ae46b54489c9fcc61a0, type: 3}
      propertyPath: m_LocalEulerAnglesHint.z
      value: 0
      objectReference: {fileID: 0}
    - target: {fileID: 5492312344283193013, guid: 5e0bd4772ef82ae46b54489c9fcc61a0, type: 3}
      propertyPath: m_Name
      value: cube (10)
      objectReference: {fileID: 0}
    m_RemovedComponents: []
  m_SourcePrefab: {fileID: 100100000, guid: 5e0bd4772ef82ae46b54489c9fcc61a0, type: 3}
--- !u!1001 &7342856561287728385
PrefabInstance:
  m_ObjectHideFlags: 0
  serializedVersion: 2
  m_Modification:
    m_TransformParent: {fileID: 0}
    m_Modifications:
    - target: {fileID: 242827740321673059, guid: 5e0bd4772ef82ae46b54489c9fcc61a0, type: 3}
      propertyPath: m_RootOrder
      value: 4
      objectReference: {fileID: 0}
    - target: {fileID: 242827740321673059, guid: 5e0bd4772ef82ae46b54489c9fcc61a0, type: 3}
      propertyPath: m_LocalPosition.x
      value: 6.6454535
      objectReference: {fileID: 0}
    - target: {fileID: 242827740321673059, guid: 5e0bd4772ef82ae46b54489c9fcc61a0, type: 3}
      propertyPath: m_LocalPosition.y
      value: 5.25
      objectReference: {fileID: 0}
    - target: {fileID: 242827740321673059, guid: 5e0bd4772ef82ae46b54489c9fcc61a0, type: 3}
      propertyPath: m_LocalPosition.z
      value: 15.73
      objectReference: {fileID: 0}
    - target: {fileID: 242827740321673059, guid: 5e0bd4772ef82ae46b54489c9fcc61a0, type: 3}
      propertyPath: m_LocalRotation.w
      value: 1
      objectReference: {fileID: 0}
    - target: {fileID: 242827740321673059, guid: 5e0bd4772ef82ae46b54489c9fcc61a0, type: 3}
      propertyPath: m_LocalRotation.x
      value: 0
      objectReference: {fileID: 0}
    - target: {fileID: 242827740321673059, guid: 5e0bd4772ef82ae46b54489c9fcc61a0, type: 3}
      propertyPath: m_LocalRotation.y
      value: 0
      objectReference: {fileID: 0}
    - target: {fileID: 242827740321673059, guid: 5e0bd4772ef82ae46b54489c9fcc61a0, type: 3}
      propertyPath: m_LocalRotation.z
      value: 0
      objectReference: {fileID: 0}
    - target: {fileID: 242827740321673059, guid: 5e0bd4772ef82ae46b54489c9fcc61a0, type: 3}
      propertyPath: m_LocalEulerAnglesHint.x
      value: 0
      objectReference: {fileID: 0}
    - target: {fileID: 242827740321673059, guid: 5e0bd4772ef82ae46b54489c9fcc61a0, type: 3}
      propertyPath: m_LocalEulerAnglesHint.y
      value: 0
      objectReference: {fileID: 0}
    - target: {fileID: 242827740321673059, guid: 5e0bd4772ef82ae46b54489c9fcc61a0, type: 3}
      propertyPath: m_LocalEulerAnglesHint.z
      value: 0
      objectReference: {fileID: 0}
    - target: {fileID: 5492312344283193013, guid: 5e0bd4772ef82ae46b54489c9fcc61a0, type: 3}
      propertyPath: m_Name
      value: cube
      objectReference: {fileID: 0}
    m_RemovedComponents: []
  m_SourcePrefab: {fileID: 100100000, guid: 5e0bd4772ef82ae46b54489c9fcc61a0, type: 3}
